<svg width="26" height="26" viewBox="0 0 26 26" fill="none" xmlns="http://www.w3.org/2000/svg">
<path d="M15.654 2.02499C12.0389 0.489624 7.71598 1.34068 4.52785 4.52834C1.33934 7.71677 0.489397 12.0388 2.02442 15.6543C0.134406 18.6548 -0.876243 21.7112 0.994911 23.5823C4.6844 27.2713 12.9805 19.7718 16.3761 16.3763C19.7717 12.9811 27.2718 4.68414 23.5823 0.994747C21.7112 -0.876358 18.6551 0.134642 15.654 2.02499ZM5.77541 5.77587C9.09143 2.45994 13.8583 2.16079 17.0831 4.9833C16.7062 5.78681 15.4801 7.85031 11.665 11.6653C7.8499 15.4796 5.78635 16.706 4.98319 17.0829C2.16061 13.8578 2.46015 9.09105 5.77541 5.77587ZM15.1289 15.1295C9.11972 21.1386 3.94085 24.0339 2.2421 22.3355C1.38159 21.4751 1.70376 19.7201 3.00791 17.4186C3.33121 17.8769 3.6979 18.3179 4.11287 18.7329C4.3064 18.9268 4.57878 19.0192 4.85077 18.9838C5.23292 18.934 7.41833 18.407 12.9126 12.9129C18.4068 7.41875 18.9338 5.23378 18.984 4.85126C19.0191 4.58003 18.9267 4.30728 18.7328 4.11338C18.3174 3.69804 17.8772 3.33174 17.4184 3.00807C19.72 1.70396 21.4746 1.38255 22.3347 2.24265C24.0339 3.94098 21.1381 9.11972 15.1289 15.1295Z" fill="#050522"/>
<path d="M17.9874 17.9883C17.6188 18.3569 17.6188 18.9541 17.9874 19.3223L20.6549 21.9893C21.0235 22.3579 21.6203 22.3579 21.9885 21.9893C22.3567 21.6208 22.357 21.0236 21.9885 20.6558L19.3213 17.9883C18.9527 17.6198 18.3556 17.6198 17.9874 17.9883Z" fill="#050522"/>
<path d="M12.1199 21.7224C11.7517 22.091 11.7517 22.6882 12.1199 23.0563L14.7874 25.7234C15.156 26.092 15.7528 26.092 16.121 25.7234C16.4896 25.3552 16.4896 24.7581 16.121 24.3899L13.4538 21.7224C13.0853 21.3542 12.4885 21.3542 12.1199 21.7224Z" fill="#050522"/>
<path d="M21.7217 12.1197C21.3532 12.4882 21.3532 13.0854 21.7217 13.454L24.3893 16.1211C24.7578 16.4896 25.355 16.4896 25.7228 16.1211C26.0914 15.7525 26.0914 15.1557 25.7228 14.7875L23.0557 12.1197C22.6875 11.7511 22.0903 11.7511 21.7217 12.1197Z" fill="#050522"/>
</svg>
