<?xml version="1.0" encoding="utf-8"?>
<!-- Generator: Adobe Illustrator 25.0.1, SVG Export Plug-In . SVG Version: 6.00 Build 0)  -->
<svg version="1.1" id="Layer_1" xmlns="http://www.w3.org/2000/svg" xmlns:xlink="http://www.w3.org/1999/xlink" x="0px" y="0px"
	 viewBox="0 0 20 20" style="enable-background:new 0 0 20 20;" xml:space="preserve">
<g>
	<path d="M9.7,19.5c-2.5,0-4.9-1-6.7-2.8c-0.2-0.2-0.2-0.5,0-0.7c0.2-0.2,0.5-0.2,0.7,0c1.6,1.6,3.7,2.5,6,2.5
		c4.7,0,8.5-3.8,8.5-8.5c0-4.7-3.8-8.5-8.5-8.5C5,1.5,1.2,5.3,1.2,10c0,0.3-0.2,0.5-0.5,0.5S0.2,10.3,0.2,10c0-5.2,4.3-9.5,9.5-9.5
		s9.5,4.3,9.5,9.5S14.9,19.5,9.7,19.5z"/>
</g>
<g>
	<path d="M12.2,10.5H0.7c-0.3,0-0.5-0.2-0.5-0.5s0.2-0.5,0.5-0.5h11.6c0.3,0,0.5,0.2,0.5,0.5S12.5,10.5,12.2,10.5z"/>
</g>
<g>
	<path d="M10.3,13.1c-0.1,0-0.2,0-0.3-0.1c-0.2-0.2-0.3-0.5-0.1-0.7l1.7-2.3L9.9,7.7C9.7,7.5,9.8,7.2,10,7c0.2-0.2,0.5-0.1,0.7,0.1
		l2.2,2.9l-2.2,2.9C10.6,13,10.5,13.1,10.3,13.1z"/>
</g>
</svg>
