<?xml version="1.0" encoding="utf-8"?>
<!-- Generator: Adobe Illustrator 25.0.1, SVG Export Plug-In . SVG Version: 6.00 Build 0)  -->
<svg version="1.1" id="Layer_1" xmlns="http://www.w3.org/2000/svg" xmlns:xlink="http://www.w3.org/1999/xlink" x="0px" y="0px"
	 viewBox="0 0 20 22" style="enable-background:new 0 0 20 22;" xml:space="preserve">
<style type="text/css">
	.st0{fill-rule:evenodd;clip-rule:evenodd;fill:#000102;}
</style>
<path class="st0" d="M0,6.8c0-2.2,1.8-4,4-4h7.8c2.2,0,4,1.8,4,4v10.6c0,2.2-1.8,4-4,4H4c-2.2,0-4-1.8-4-4V6.8z M4,4.4
	c-1.3,0-2.4,1.1-2.4,2.4v10.6c0,1.3,1.1,2.4,2.4,2.4h7.8c1.3,0,2.4-1.1,2.4-2.4V6.8c0-1.3-1.1-2.4-2.4-2.4H4z"/>
<path class="st0" d="M7.9,1.6c-1.1,0-2,0.9-2,2H4.2c0-2,1.6-3.6,3.6-3.6H16c2.2,0,4,1.8,4,4v10.6c0,2.2-1.8,4-4,4H15
	c-0.4,0-0.8-0.4-0.8-0.8c0-0.4,0.4-0.8,0.8-0.8H16c1.3,0,2.4-1.1,2.4-2.4V4c0-1.3-1.1-2.4-2.4-2.4H7.9z"/>
<path class="st0" d="M4.5,7.9c0-0.3,0.2-0.5,0.5-0.5h5.7c0.3,0,0.5,0.2,0.5,0.5c0,0.3-0.2,0.5-0.5,0.5H5C4.8,8.4,4.5,8.2,4.5,7.9z"
	/>
<path class="st0" d="M9.5,13.5c0-0.3,0.2-0.5,0.5-0.5h0.7c0.3,0,0.5,0.2,0.5,0.5c0,0.3-0.2,0.5-0.5,0.5H10
	C9.7,14.1,9.5,13.8,9.5,13.5z"/>
<path class="st0" d="M4.5,10.7c0-0.3,0.2-0.5,0.5-0.5h5.7c0.3,0,0.5,0.2,0.5,0.5c0,0.3-0.2,0.5-0.5,0.5H5C4.8,11.2,4.5,11,4.5,10.7z
	"/>
</svg>
