<?xml version="1.0" encoding="utf-8"?>
<!-- Generator: Adobe Illustrator 25.0.1, SVG Export Plug-In . SVG Version: 6.00 Build 0)  -->
<svg version="1.1" id="Layer_1" xmlns="http://www.w3.org/2000/svg" xmlns:xlink="http://www.w3.org/1999/xlink" x="0px" y="0px"
	 viewBox="0 0 29 33" style="enable-background:new 0 0 29 33;" xml:space="preserve">
<style type="text/css">
	.st0{fill-rule:evenodd;clip-rule:evenodd;}
</style>
<g>
	<path d="M6,30H4c-2.2,0-4-1.8-4-4V9.6L9.6,0H20c2.2,0,4,1.8,4,4v15c0,0.6-0.4,1-1,1s-1-0.4-1-1V4c0-1.1-0.9-2-2-2h-9.6L2,10.4V26
		c0,1.1,0.9,2,2,2h2c0.6,0,1,0.4,1,1S6.6,30,6,30z"/>
</g>
<g>
	<path d="M11.7,23.7h2.5c0.5,0,0.9,0.1,1.3,0.3c0.4,0.2,0.7,0.4,0.9,0.7c0.2,0.3,0.3,0.7,0.3,1.2c0,0.4-0.1,0.8-0.3,1.2
		c-0.2,0.3-0.5,0.6-0.9,0.7c-0.4,0.2-0.8,0.3-1.3,0.3H13v2h-1.4V23.7z M14.1,26.8c0.8,0,1.2-0.3,1.2-1c0-0.3-0.1-0.6-0.3-0.7
		c-0.2-0.2-0.5-0.2-0.9-0.2H13v2H14.1z M17.7,23.7h2.2c0.7,0,1.3,0.1,1.8,0.4c0.5,0.2,0.9,0.6,1.2,1.1c0.3,0.5,0.4,1,0.4,1.7
		c0,0.7-0.1,1.2-0.4,1.7c-0.3,0.5-0.7,0.8-1.2,1.1c-0.5,0.2-1.1,0.4-1.8,0.4h-2.2V23.7z M19.9,28.8c0.7,0,1.2-0.2,1.5-0.5
		s0.5-0.8,0.5-1.5c0-0.6-0.2-1.1-0.5-1.5c-0.3-0.3-0.8-0.5-1.5-0.5h-0.8v4H19.9z M24.3,23.7h4.3v1.2h-2.9v1.5h2.7v1.2h-2.7V30h-1.4
		V23.7z"/>
</g>
<g>
	<path class="st0" d="M1,10h7c1.1,0,2-0.9,2-2V1"/>
</g>
<g>
	<path d="M8,11H1c-0.6,0-1-0.4-1-1s0.4-1,1-1h7c0.6,0,1-0.4,1-1V1c0-0.6,0.4-1,1-1s1,0.4,1,1v7C11,9.7,9.7,11,8,11z"/>
</g>
</svg>
