<svg width="20" height="20" viewBox="0 0 20 20" fill="none" xmlns="http://www.w3.org/2000/svg">
<path d="M2.59007 5.50268C1.79261 6.81378 1.33333 8.35325 1.33333 10C1.33333 11.6468 1.79264 13.1863 2.59015 14.4975C3.33341 14.2001 4.15254 13.9601 5.04765 13.7771C4.80064 12.6088 4.66667 11.3325 4.66667 10C4.66667 8.66751 4.80063 7.39136 5.04765 6.22302C4.15249 6.04 3.33334 5.80007 2.59007 5.50268ZM3.39855 4.3844C4.0015 4.60422 4.6621 4.7862 5.38026 4.92998C5.73764 3.76441 6.21773 2.74792 6.79408 1.94561C5.47043 2.47293 4.30736 3.31709 3.39855 4.3844ZM17.4099 5.50268C16.6667 5.80007 15.8475 6.04 14.9523 6.22302C15.1994 7.39136 15.3333 8.66751 15.3333 10C15.3333 11.3325 15.1994 12.6088 14.9523 13.7771C15.8475 13.9601 16.6666 14.2001 17.4099 14.4975C18.2074 13.1863 18.6667 11.6468 18.6667 10C18.6667 8.35325 18.2074 6.81378 17.4099 5.50268ZM16.6015 4.3844C15.6926 3.31709 14.5296 2.47293 13.2059 1.94561C13.7823 2.74792 14.2624 3.76441 14.6197 4.92998C15.3379 4.7862 15.9985 4.60422 16.6015 4.3844ZM1.7426 4.35779C1.76949 4.3063 1.80229 4.25969 1.83977 4.21841C3.65167 1.6657 6.63131 0 10 0C13.3687 0 16.3483 1.6657 18.1602 4.21841C18.1977 4.25969 18.2305 4.3063 18.2574 4.35779C19.3569 5.96376 20 7.90678 20 10C20 12.093 19.357 14.0358 18.2577 15.6417C18.2307 15.6937 18.1976 15.7407 18.1597 15.7823C16.3478 18.3346 13.3684 20 10 20C6.63163 20 3.65224 18.3346 1.8403 15.7823C1.80243 15.7407 1.76932 15.6937 1.74225 15.6417C0.643006 14.0358 0 12.093 0 10C0 7.90678 0.643143 5.96376 1.7426 4.35779ZM6.36611 6.44423C6.13266 7.52583 6 8.72828 6 10C6 11.2718 6.13267 12.4743 6.36614 13.5559C7.477 13.4072 8.68823 13.3333 10 13.3333C11.3118 13.3333 12.523 13.4072 13.6339 13.5559C13.8673 12.4743 14 11.2718 14 10C14 8.72828 13.8673 7.52583 13.6339 6.44423C12.523 6.59291 11.3118 6.66683 10 6.66683C8.68822 6.66683 7.47698 6.59291 6.36611 6.44423ZM6.7127 5.14466C7.715 5.2703 8.81082 5.33349 10 5.33349C11.1892 5.33349 12.285 5.2703 13.2873 5.14466C12.5431 2.83537 11.3043 1.33333 10 1.33333C8.69572 1.33333 7.4569 2.83537 6.7127 5.14466ZM3.39865 15.6157C4.30745 16.683 5.47048 17.5271 6.79408 18.0544C6.21775 17.2521 5.73768 16.2357 5.38031 15.0702C4.66217 15.2139 4.00159 15.3959 3.39865 15.6157ZM16.6013 15.6157C15.9984 15.3959 15.3378 15.2139 14.6197 15.0702C14.2623 16.2357 13.7822 17.2521 13.2059 18.0544C14.5295 17.5271 15.6926 16.683 16.6013 15.6157ZM6.71275 14.8555C7.45696 17.1647 8.69575 18.6667 10 18.6667C11.3043 18.6667 12.543 17.1647 13.2873 14.8555C12.285 14.7299 11.1892 14.6667 10 14.6667C8.81084 14.6667 7.71504 14.7299 6.71275 14.8555Z" fill="#050522"/>
</svg>
